E:\Cursos Java\Arquitecto AmazonWebServices\AWS-Sesion-Tarea\aws_tarea_final\aws_tarea_final_backend\componentSecurity\src\main\java\aws\mitocode\spring\security\AwsCognitoJwtAuthenticationFilter.java
E:\Cursos Java\Arquitecto AmazonWebServices\AWS-Sesion-Tarea\aws_tarea_final\aws_tarea_final_backend\componentSecurity\src\main\java\aws\mitocode\spring\SecurityConfiguration.java
E:\Cursos Java\Arquitecto AmazonWebServices\AWS-Sesion-Tarea\aws_tarea_final\aws_tarea_final_backend\componentSecurity\src\main\java\aws\mitocode\spring\SwaggerConfig.java
E:\Cursos Java\Arquitecto AmazonWebServices\AWS-Sesion-Tarea\aws_tarea_final\aws_tarea_final_backend\componentSecurity\src\main\java\aws\mitocode\spring\security\AwsCognitoRSAKeyProvider.java
