aws\mitocode\spring\controller\api\ApiEncuestasUsrsController.class
aws\mitocode\spring\model\EncuestasUsrs.class
aws\mitocode\spring\dto\RespuestaApi.class
aws\mitocode\spring\App.class
aws\mitocode\spring\controller\StatusController.class
aws\mitocode\spring\dao\IEncuestasUsrsDao.class
aws\mitocode\spring\service\IEncuestasUsrsService.class
aws\mitocode\spring\service\impl\EncuestasUsrsServiceImpl.class
