E:\Cursos Java\Arquitecto AmazonWebServices\AWS-Sesion-Tarea\aws_tarea_final\aws_tarea_final_backend\apiEncuesta\src\main\java\aws\mitocode\spring\dto\RespuestaApi.java
E:\Cursos Java\Arquitecto AmazonWebServices\AWS-Sesion-Tarea\aws_tarea_final\aws_tarea_final_backend\apiEncuesta\src\main\java\aws\mitocode\spring\controller\api\ApiEncuestasUsrsController.java
E:\Cursos Java\Arquitecto AmazonWebServices\AWS-Sesion-Tarea\aws_tarea_final\aws_tarea_final_backend\apiEncuesta\src\main\java\aws\mitocode\spring\model\EncuestasUsrs.java
E:\Cursos Java\Arquitecto AmazonWebServices\AWS-Sesion-Tarea\aws_tarea_final\aws_tarea_final_backend\apiEncuesta\src\main\java\aws\mitocode\spring\App.java
E:\Cursos Java\Arquitecto AmazonWebServices\AWS-Sesion-Tarea\aws_tarea_final\aws_tarea_final_backend\apiEncuesta\src\main\java\aws\mitocode\spring\service\IEncuestasUsrsService.java
E:\Cursos Java\Arquitecto AmazonWebServices\AWS-Sesion-Tarea\aws_tarea_final\aws_tarea_final_backend\apiEncuesta\src\main\java\aws\mitocode\spring\service\impl\EncuestasUsrsServiceImpl.java
E:\Cursos Java\Arquitecto AmazonWebServices\AWS-Sesion-Tarea\aws_tarea_final\aws_tarea_final_backend\apiEncuesta\src\main\java\aws\mitocode\spring\controller\StatusController.java
E:\Cursos Java\Arquitecto AmazonWebServices\AWS-Sesion-Tarea\aws_tarea_final\aws_tarea_final_backend\apiEncuesta\src\main\java\aws\mitocode\spring\dao\IEncuestasUsrsDao.java
