aws\mitocode\spring\JmsConfig.class
aws\mitocode\spring\dto\RespuestaApi.class
aws\mitocode\spring\SecurityConfiguration.class
aws\mitocode\spring\service\impl\SecurityServiceImpl.class
aws\mitocode\spring\service\impl\EncuestaServiceImpl.class
aws\mitocode\spring\dto\UpdatePasswordDTO.class
aws\mitocode\spring\security\AwsCognitoJwtAuthenticationFilter.class
aws\mitocode\spring\dto\LoginDTO.class
aws\mitocode\spring\controller\api\ApiSecurityController.class
aws\mitocode\spring\controller\StatusController.class
aws\mitocode\spring\dto\RenewPasswordFirstDTO.class
aws\mitocode\spring\service\IEncuestaService.class
aws\mitocode\spring\SwaggerConfig.class
aws\mitocode\spring\controller\AngularController.class
aws\mitocode\spring\controller\api\ApiEncuestaController.class
aws\mitocode\spring\security\AwsCognitoRSAKeyProvider.class
aws\mitocode\spring\App.class
aws\mitocode\spring\service\SecurityService.class
aws\mitocode\spring\dto\UserAttributesCognito.class
aws\mitocode\spring\dto\SNSMessage.class
aws\mitocode\spring\model\Encuesta.class
aws\mitocode\spring\dto\BasicAccessDTO.class
aws\mitocode\spring\dao\IEncuestaDao.class
